module gitlab.com/reavessm/obi

go 1.17

require (
	github.com/charmbracelet/bubbles v0.10.3
	github.com/charmbracelet/bubbletea v0.20.0
	github.com/charmbracelet/lipgloss v0.4.0
	github.com/containers/podman/v4 v4.0.0
	golang.org/x/term v0.0.0-20210615171337-6886f2dfbf5b
)

require (
	github.com/Azure/go-ansiterm v0.0.0-20210617225240-d185dfc1b5a1 // indirect
	github.com/BurntSushi/toml v1.0.0 // indirect
	github.com/Microsoft/go-winio v0.5.1 // indirect
	github.com/Microsoft/hcsshim v0.9.2 // indirect
	github.com/VividCortex/ewma v1.2.0 // indirect
	github.com/acarl005/stripansi v0.0.0-20180116102854-5a71ef0e047d // indirect
	github.com/atotto/clipboard v0.1.4 // indirect
	github.com/beorn7/perks v1.0.1 // indirect
	github.com/blang/semver v3.5.1+incompatible // indirect
	github.com/cespare/xxhash/v2 v2.1.2 // indirect
	github.com/chzyer/readline v0.0.0-20180603132655-2972be24d48e // indirect
	github.com/containerd/cgroups v1.0.1 // indirect
	github.com/containerd/console v1.0.3 // indirect
	github.com/containerd/containerd v1.5.9 // indirect
	github.com/containerd/stargz-snapshotter/estargz v0.11.0 // indirect
	github.com/containers/buildah v1.24.1 // indirect
	github.com/containers/common v0.47.4 // indirect
	github.com/containers/image/v5 v5.19.1 // indirect
	github.com/containers/libtrust v0.0.0-20190913040956-14b96171aa3b // indirect
	github.com/containers/ocicrypt v1.1.2 // indirect
	github.com/containers/psgo v1.7.2 // indirect
	github.com/containers/storage v1.38.2 // indirect
	github.com/coreos/go-systemd/v22 v22.3.2 // indirect
	github.com/cyphar/filepath-securejoin v0.2.3 // indirect
	github.com/disiqueira/gotree/v3 v3.0.2 // indirect
	github.com/docker/distribution v2.8.0+incompatible // indirect
	github.com/docker/docker v20.10.12+incompatible // indirect
	github.com/docker/docker-credential-helpers v0.6.4 // indirect
	github.com/docker/go-connections v0.4.1-0.20210727194412-58542c764a11 // indirect
	github.com/docker/go-metrics v0.0.1 // indirect
	github.com/docker/go-units v0.4.0 // indirect
	github.com/ghodss/yaml v1.0.0 // indirect
	github.com/godbus/dbus/v5 v5.0.6 // indirect
	github.com/gogo/protobuf v1.3.2 // indirect
	github.com/golang/groupcache v0.0.0-20210331224755-41bb18bfe9da // indirect
	github.com/golang/protobuf v1.5.2 // indirect
	github.com/google/go-intervals v0.0.2 // indirect
	github.com/google/uuid v1.3.0 // indirect
	github.com/gorilla/mux v1.8.0 // indirect
	github.com/gorilla/schema v1.2.0 // indirect
	github.com/hashicorp/errwrap v1.0.0 // indirect
	github.com/hashicorp/go-multierror v1.1.1 // indirect
	github.com/hpcloud/tail v1.0.0 // indirect
	github.com/imdario/mergo v0.3.12 // indirect
	github.com/jinzhu/copier v0.3.5 // indirect
	github.com/json-iterator/go v1.1.12 // indirect
	github.com/klauspost/compress v1.14.2 // indirect
	github.com/klauspost/pgzip v1.2.5 // indirect
	github.com/lucasb-eyer/go-colorful v1.2.0 // indirect
	github.com/manifoldco/promptui v0.9.0 // indirect
	github.com/mattn/go-isatty v0.0.14 // indirect
	github.com/mattn/go-runewidth v0.0.13 // indirect
	github.com/mattn/go-shellwords v1.0.12 // indirect
	github.com/matttproud/golang_protobuf_extensions v1.0.2-0.20181231171920-c182affec369 // indirect
	github.com/miekg/pkcs11 v1.0.3 // indirect
	github.com/mistifyio/go-zfs v2.1.2-0.20190413222219-f784269be439+incompatible // indirect
	github.com/moby/sys/mountinfo v0.5.0 // indirect
	github.com/moby/term v0.0.0-20210619224110-3f7ff695adc6 // indirect
	github.com/modern-go/concurrent v0.0.0-20180306012644-bacd9c7ef1dd // indirect
	github.com/modern-go/reflect2 v1.0.2 // indirect
	github.com/muesli/ansi v0.0.0-20211018074035-2e021307bc4b // indirect
	github.com/muesli/reflow v0.3.0 // indirect
	github.com/muesli/termenv v0.11.1-0.20220212125758-44cd13922739 // indirect
	github.com/opencontainers/go-digest v1.0.0 // indirect
	github.com/opencontainers/image-spec v1.0.3-0.20220114050600-8b9d41f48198 // indirect
	github.com/opencontainers/runc v1.1.0 // indirect
	github.com/opencontainers/runtime-spec v1.0.3-0.20211214071223-8958f93039ab // indirect
	github.com/opencontainers/runtime-tools v0.9.1-0.20220110225228-7e2d60f1e41f // indirect
	github.com/opencontainers/selinux v1.10.0 // indirect
	github.com/ostreedev/ostree-go v0.0.0-20190702140239-759a8c1ac913 // indirect
	github.com/pkg/errors v0.9.1 // indirect
	github.com/proglottis/gpgme v0.1.1 // indirect
	github.com/prometheus/client_golang v1.7.1 // indirect
	github.com/prometheus/client_model v0.2.0 // indirect
	github.com/prometheus/common v0.10.0 // indirect
	github.com/prometheus/procfs v0.6.0 // indirect
	github.com/rivo/uniseg v0.2.0 // indirect
	github.com/sahilm/fuzzy v0.1.0 // indirect
	github.com/sirupsen/logrus v1.8.1 // indirect
	github.com/spf13/pflag v1.0.5 // indirect
	github.com/stefanberger/go-pkcs11uri v0.0.0-20201008174630-78d3cae3a980 // indirect
	github.com/sylabs/sif/v2 v2.3.1 // indirect
	github.com/syndtr/gocapability v0.0.0-20200815063812-42c35b437635 // indirect
	github.com/tchap/go-patricia v2.3.0+incompatible // indirect
	github.com/ulikunitz/xz v0.5.10 // indirect
	github.com/vbatts/tar-split v0.11.2 // indirect
	github.com/vbauerster/mpb/v7 v7.3.2 // indirect
	github.com/xeipuuv/gojsonpointer v0.0.0-20190809123943-df4f5c81cb3b // indirect
	github.com/xeipuuv/gojsonreference v0.0.0-20180127040603-bd5ef7bd5415 // indirect
	github.com/xeipuuv/gojsonschema v1.2.0 // indirect
	go.etcd.io/bbolt v1.3.6 // indirect
	go.mozilla.org/pkcs7 v0.0.0-20200128120323-432b2356ecb1 // indirect
	go.opencensus.io v0.23.0 // indirect
	golang.org/x/crypto v0.0.0-20220112180741-5e0467b6c7ce // indirect
	golang.org/x/net v0.0.0-20220114011407-0dd24b26b47d // indirect
	golang.org/x/sync v0.0.0-20210220032951-036812b2e83c // indirect
	golang.org/x/sys v0.0.0-20220114195835-da31bd327af9 // indirect
	golang.org/x/text v0.3.7 // indirect
	google.golang.org/genproto v0.0.0-20211208223120-3a66f561d7aa // indirect
	google.golang.org/grpc v1.42.0 // indirect
	google.golang.org/protobuf v1.27.1 // indirect
	gopkg.in/fsnotify.v1 v1.4.7 // indirect
	gopkg.in/square/go-jose.v2 v2.5.1 // indirect
	gopkg.in/tomb.v1 v1.0.0-20141024135613-dd632973f1e7 // indirect
	gopkg.in/yaml.v2 v2.4.0 // indirect
)
